<?xml version="1.0" encoding="UTF-8" standalone="no"?>
<svg
   xml:space="preserve"
   viewBox="0 0 192 192"
   version="1.1"
   id="svg96927"
   sodipodi:docname="icon.svg"
   inkscape:version="1.1.2 (0a00cf5339, 2022-02-04)"
   inkscape:export-filename="/home/kris/Projects/AaltoFablab/Projects/NordicFablabsBootcamp2024/website/icon.png"
   inkscape:export-xdpi="96"
   inkscape:export-ydpi="96"
   xmlns:inkscape="http://www.inkscape.org/namespaces/inkscape"
   xmlns:sodipodi="http://sodipodi.sourceforge.net/DTD/sodipodi-0.dtd"
   xmlns="http://www.w3.org/2000/svg"
   xmlns:svg="http://www.w3.org/2000/svg"><defs
     id="defs96931" /><sodipodi:namedview
     id="namedview96929"
     pagecolor="#ffffff"
     bordercolor="#666666"
     borderopacity="1.0"
     inkscape:pageshadow="2"
     inkscape:pageopacity="0.0"
     inkscape:pagecheckerboard="0"
     showgrid="false"
     inkscape:zoom="2.0550291"
     inkscape:cx="123.35592"
     inkscape:cy="96.349001"
     inkscape:window-width="1920"
     inkscape:window-height="1043"
     inkscape:window-x="1366"
     inkscape:window-y="0"
     inkscape:window-maximized="1"
     inkscape:current-layer="svg96927" /><rect
     style="fill:#f0f757;fill-opacity:1;stroke:none;stroke-width:0.581043;stroke-linecap:round;stroke-linejoin:round;stroke-miterlimit:4;stroke-dasharray:none;paint-order:markers fill stroke"
     id="rect40442-7-7-8-2-2"
     width="192"
     height="192"
     x="0"
     y="0" /><path
     id="path1093-5-0-7-8-0"
     style="fill:#cc5a71;fill-opacity:1;stroke:none;stroke-width:0.132167px;stroke-linecap:butt;stroke-linejoin:miter;stroke-opacity:1"
     d="M 16.965722,49.741574 V 142.25843 H 56.6158 l 12.95081,-12.95081 v 12.95081 H 96 v -26.43339 h 13.21669 V 89.391646 H 96 V 76.174954 h 26.16751 c 0,11.748177 0,26.433396 0,26.433396 l 13.21669,13.21669 h -13.21669 v 26.43339 h 39.65008 l 13.21669,-13.21669 V 102.60835 L 161.81759,89.391646 175.03428,76.174954 V 49.741574 H 135.3842 L 122.43339,62.692372 V 49.741574 H 69.56661 V 62.692372 L 56.6158,49.741574 Z" /></svg>
